…
## CV by modelr

``` r
cv_df = 
  crossv_mc(nonlin_df, 100) 
```

what is happening

``` r
cv_df %>% pull(train) %>% .[[1]] %>% as_tibble
```

    ## # A tibble: 79 x 3
    ##       id      x      y
    ##    <int>  <dbl>  <dbl>
    ##  1     2 0.139   0.839
    ##  2     4 0.218   1.33 
    ##  3     5 0.714  -0.691
    ##  4     7 0.794  -1.09 
    ##  5     8 0.230   1.18 
    ##  6     9 0.900  -2.62 
    ##  7    10 0.256   0.510
    ##  8    12 0.0363  0.742
    ##  9    13 0.920  -2.78 
    ## 10    14 0.0678  0.350
    ## # ... with 69 more rows

``` r
cv_df %>% pull(test) %>% .[[1]] %>% as_tibble
```

    ## # A tibble: 21 x 3
    ##       id     x       y
    ##    <int> <dbl>   <dbl>
    ##  1     1 0.638 -0.282 
    ##  2     3 0.177  0.852 
    ##  3     6 0.846 -1.97  
    ##  4    11 0.751 -0.701 
    ##  5    20 0.364  1.04  
    ##  6    26 0.116  0.0391
    ##  7    28 0.699 -0.303 
    ##  8    31 0.612  0.189 
    ##  9    38 0.776 -1.53  
    ## 10    44 0.535  1.42  
    ## # ... with 11 more rows
…
